{
  "Comment.nvim": { "branch": "master", "commit": "c8043290f2d77f61025494d839d88e414608c460" },
  "FixCursorHold.nvim": { "branch": "master", "commit": "1900f89dc17c603eec29960f57c00bd9ae696495" },
  "LuaSnip": { "branch": "master", "commit": "a13af80734eb28f744de6c875330c9d3c24b5f3b" },
  "asyncrun.vim": { "branch": "master", "commit": "7191d0c30dd105e5d7f897b9a6ee19cabe734466" },
  "barbecue.nvim": { "branch": "main", "commit": "cd7e7da622d68136e13721865b4d919efd6325ed" },
  "browser-bookmarks.nvim": { "branch": "main", "commit": "e643372d509d138d3244f917283b13f52a9cf5eb" },
  "catppuccin": { "branch": "main", "commit": "1bf7e318de60795d129b9102ab3866aadb7571dc" },
  "cmp-buffer": { "branch": "main", "commit": "3022dbc9166796b644a841a02de8dd1cc1d311fa" },
  "cmp-cmdline": { "branch": "main", "commit": "8ee981b4a91f536f52add291594e89fb6645e451" },
  "cmp-nvim-lsp": { "branch": "main", "commit": "0e6b2ed705ddcff9738ec4ea838141654f12eeef" },
  "cmp-path": { "branch": "main", "commit": "91ff86cd9c29299a64f968ebb45846c485725f23" },
  "cmp_luasnip": { "branch": "master", "commit": "18095520391186d634a0045dacaa346291096566" },
  "copilot.vim": { "branch": "release", "commit": "1358e8e45ecedc53daf971924a0541ddf6224faf" },
  "dashboard-nvim": { "branch": "master", "commit": "0af0ad181db271ef8d5a332f4cfcec9118340497" },
  "dressing.nvim": { "branch": "master", "commit": "f16d7586fcdd8b2e3850d0abb7e46f944125cc25" },
  "fidget.nvim": { "branch": "main", "commit": "0ba1e16d07627532b6cae915cc992ecac249fb97" },
  "friendly-snippets": { "branch": "main", "commit": "0eb246a7dbb06d3d9e560696be210241cc27c081" },
  "git-messenger.vim": { "branch": "master", "commit": "8a61bdfa351d4df9a9118ee1d3f45edbed617072" },
  "gitsigns.nvim": { "branch": "main", "commit": "4455bb5364d29ff86639dfd5533d4fe4b48192d4" },
  "goto-preview": { "branch": "main", "commit": "82ce83ae589be7a59e4ec5cfbbf82d9f5eb8bded" },
  "harpoon": { "branch": "master", "commit": "21f4c47c6803d64ddb934a5b314dcb1b8e7365dc" },
  "hop.nvim": { "branch": "master", "commit": "90db1b2c61b820e230599a04fedcd2679e64bd07" },
  "lazy.nvim": { "branch": "main", "commit": "d1b02c2dda88422ca573f2a1ebdfb213ce0124d6" },
  "lazygit.nvim": { "branch": "main", "commit": "3466e48439601445e26c65635421625886f2d0c0" },
  "lsp_signature.nvim": { "branch": "master", "commit": "17ff7a405fea8376b015b8ea7910d2e59958bf68" },
  "lualine.nvim": { "branch": "master", "commit": "05d78e9fd0cdfb4545974a5aa14b1be95a86e9c9" },
  "markdown-preview.nvim": { "branch": "master", "commit": "02cc3874738bc0f86e4b91f09b8a0ac88aef8e96" },
  "marks.nvim": { "branch": "master", "commit": "76aca5069c5ce5c0099e30168649e6393e494f26" },
  "mason-lspconfig.nvim": { "branch": "main", "commit": "5230617372e656d4a2e1e236e03bf7e7b4b97273" },
  "mason-null-ls.nvim": { "branch": "main", "commit": "54d702020bf94e4eefd357f0b738317af30217eb" },
  "mason.nvim": { "branch": "main", "commit": "7d7efc738e08fc5bee822857db45cb6103f0b0c1" },
  "neodev.nvim": { "branch": "main", "commit": "a24a910ad0842be997f34a4811c10b4f92aa53af" },
  "neorg": { "branch": "main", "commit": "5cbe85bc66fb76824ec3584e5dcb9e13a7f10a84" },
  "neotest": { "branch": "master", "commit": "0207e4025e5558fdd0b3951f250689eede5c75b2" },
  "neotest-go": { "branch": "main", "commit": "4e7a87967e45f2b357fd546b0b7877774191772e" },
  "neotest-python": { "branch": "master", "commit": "6c06041cfb45f45e276068020baa06c06fe20d5c" },
  "null-ls.nvim": { "branch": "main", "commit": "a138b14099e9623832027ea12b4631ddd2a49256" },
  "numb.nvim": { "branch": "master", "commit": "2c89245d1185e02fec1494c45bc765a38b6b40b3" },
  "nvim-autopairs": { "branch": "master", "commit": "59df87a84c80a357ca8d8fe86e451b93ac476ccc" },
  "nvim-cmp": { "branch": "main", "commit": "b5a636d46c69bb371995c22d7a10ee1544004879" },
  "nvim-dap": { "branch": "master", "commit": "7c1d47cf7188fc31acdf951f9eee22da9d479152" },
  "nvim-dap-python": { "branch": "master", "commit": "37b4cba02e337a95cb62ad1609b3d1dccb2e5d42" },
  "nvim-dap-ui": { "branch": "master", "commit": "c020f660b02772f9f3d11f599fefad3268628a9e" },
  "nvim-lspconfig": { "branch": "master", "commit": "0f598b9ab9f2a6d7e137074be99c8d89af44b990" },
  "nvim-navic": { "branch": "master", "commit": "15704c607569d6c5cfeab486d3ef9459645a70ce" },
  "nvim-notify": { "branch": "master", "commit": "ea9c8ce7a37f2238f934e087c255758659948e0f" },
  "nvim-scrollbar": { "branch": "main", "commit": "35f99d559041c7c0eff3a41f9093581ceea534e8" },
  "nvim-surround": { "branch": "main", "commit": "211eaad7c6d01ef4ac02cba9052b3082ec232101" },
  "nvim-tmux-navigation": { "branch": "main", "commit": "543f090a45cef28156162883d2412fffecb6b750" },
  "nvim-tree.lua": { "branch": "master", "commit": "f5d970d4506f385b29534252d8c15a782fa53034" },
  "nvim-treesitter": { "branch": "master", "commit": "5944fc821ac590ddb8073b3f9243a432105237b0" },
  "nvim-treesitter-textobjects": { "branch": "master", "commit": "2d6d3c7e49a24f6ffbbf7898241fefe9784f61bd" },
  "nvim-web-devicons": { "branch": "master", "commit": "2a125024a137677930efcfdf720f205504c97268" },
  "octo.nvim": { "branch": "master", "commit": "2d2769ff80a82a0da24dcf636ae146f3ed5d7ae5" },
  "persisted.nvim": { "branch": "main", "commit": "536513779be5c067bcc3610aecdcfbe88dd5d85e" },
  "plenary.nvim": { "branch": "master", "commit": "499e0743cf5e8075cd32af68baa3946a1c76adf1" },
  "refactoring.nvim": { "branch": "master", "commit": "a85dfff2602b739627b9f8a831de8c3e7b2993ae" },
  "swenv.nvim": { "branch": "main", "commit": "08aea3e8809ab00dfcab3cebb466dcb8001ad162" },
  "symbols-outline.nvim": { "branch": "master", "commit": "512791925d57a61c545bc303356e8a8f7869763c" },
  "telescope-fzf-native.nvim": { "branch": "main", "commit": "9bc8237565ded606e6c366a71c64c0af25cd7a50" },
  "telescope.nvim": { "branch": "master", "commit": "66b03e7740e52155af9c05cf2038deb473835cdf" },
  "todo-comments.nvim": { "branch": "main", "commit": "09b0b17d824d2d56f02ff15967e8a2499a89c731" },
  "toggleterm.nvim": { "branch": "main", "commit": "95204ece0f2a54c89c4395295432f9aeedca7b5f" },
  "trouble.nvim": { "branch": "main", "commit": "2af0dd9767526410c88c628f1cbfcb6cf22dd683" },
  "twilight.nvim": { "branch": "main", "commit": "a4843e6e67092a1e6fa9666f02bf0ab59174c1df" },
  "undotree": { "branch": "master", "commit": "485f01efde4e22cb1ce547b9e8c9238f36566f21" },
  "vim-easy-align": { "branch": "master", "commit": "12dd6316974f71ce333e360c0260b4e1f81169c3" },
  "vim-fugitive": { "branch": "master", "commit": "5f0d280b517cacb16f59316659966c7ca5e2bea2" },
  "vim-highlightedyank": { "branch": "master", "commit": "fa3f57b097e9521ce41a66b6c7cf5d9adea70ea3" },
  "vim-repeat": { "branch": "master", "commit": "24afe922e6a05891756ecf331f39a1f6743d3d5a" },
  "vim-rhubarb": { "branch": "master", "commit": "ee69335de176d9325267b0fd2597a22901d927b1" },
  "vim-visual-star-search": { "branch": "master", "commit": "7c32edb9e3c85d473d9be4dec721a4c9d5d4d69c" },
  "which-key.nvim": { "branch": "main", "commit": "e271c28118998c93a14d189af3395812a1aa646c" },
  "zen-mode.nvim": { "branch": "main", "commit": "68f554702de63f4b7b6b6d4bcb10178f41a0acc7" }
}