{
    "window.zoomLevel": 1,
    "explorer.confirmDragAndDrop": false,
    "git.enableSmartCommit": true,
    "git.autofetch": true,
    "workbench.iconTheme": "material-icon-theme",
    "workbench.colorTheme": "Dracula",
    "materialTheme.fixIconsRunning": false,
    "editor.minimap.enabled": false,
    "editor.fontWeight": "500",
    "editor.fontFamily": "'Droid Sans Mono', 'monospace', monospace, 'Droid Sans Fallback'",
    "editor.tabSize": 2,
    "diffEditor.ignoreTrimWhitespace": false,
    "window.titleBarStyle": "custom",
    "[python]": {
        "editor.tabSize": 4
    },
    "[javascript]": {
        "editor.tabSize": 2
    },
    "terminal.integrated.rendererType": "dom",
    "javascript.updateImportsOnFileMove.enabled": "always",
    "editor.rulers": [
        80,
        120
    ],
    "sync.gist": "2aed395aabfe57d208c86bdc5a2c6b0f",
    "explorer.confirmDelete": false,
}